(kicad_sch (version 20211123) (generator eeschema)

  (uuid a32c7896-5eee-4959-8028-46a787e4f5e6)

  (paper "A4")

  (lib_symbols
    (symbol "Connector_Generic:Conn_01x02" (pin_names (offset 1.016) hide) (in_bom yes) (on_board yes)
      (property "Reference" "J" (id 0) (at 0 2.54 0)
        (effects (font (size 1.27 1.27)))
      )
      (property "Value" "Conn_01x02" (id 1) (at 0 -5.08 0)
        (effects (font (size 1.27 1.27)))
      )
      (property "Footprint" "" (id 2) (at 0 0 0)
        (effects (font (size 1.27 1.27)) hide)
      )
      (property "Datasheet" "~" (id 3) (at 0 0 0)
        (effects (font (size 1.27 1.27)) hide)
      )
      (property "ki_keywords" "connector" (id 4) (at 0 0 0)
        (effects (font (size 1.27 1.27)) hide)
      )
      (property "ki_description" "Generic connector, single row, 01x02, script generated (kicad-library-utils/schlib/autogen/connector/)" (id 5) (at 0 0 0)
        (effects (font (size 1.27 1.27)) hide)
      )
      (property "ki_fp_filters" "Connector*:*_1x??_*" (id 6) (at 0 0 0)
        (effects (font (size 1.27 1.27)) hide)
      )
      (symbol "Conn_01x02_1_1"
        (rectangle (start -1.27 -2.413) (end 0 -2.667)
          (stroke (width 0.1524) (type default) (color 0 0 0 0))
          (fill (type none))
        )
        (rectangle (start -1.27 0.127) (end 0 -0.127)
          (stroke (width 0.1524) (type default) (color 0 0 0 0))
          (fill (type none))
        )
        (rectangle (start -1.27 1.27) (end 1.27 -3.81)
          (stroke (width 0.254) (type default) (color 0 0 0 0))
          (fill (type background))
        )
        (pin passive line (at -5.08 0 0) (length 3.81)
          (name "Pin_1" (effects (font (size 1.27 1.27))))
          (number "1" (effects (font (size 1.27 1.27))))
        )
        (pin passive line (at -5.08 -2.54 0) (length 3.81)
          (name "Pin_2" (effects (font (size 1.27 1.27))))
          (number "2" (effects (font (size 1.27 1.27))))
        )
      )
    )
    (symbol "Device:Q_PNP_EBC" (pin_names (offset 0) hide) (in_bom yes) (on_board yes)
      (property "Reference" "Q" (id 0) (at 5.08 1.27 0)
        (effects (font (size 1.27 1.27)) (justify left))
      )
      (property "Value" "Q_PNP_EBC" (id 1) (at 5.08 -1.27 0)
        (effects (font (size 1.27 1.27)) (justify left))
      )
      (property "Footprint" "" (id 2) (at 5.08 2.54 0)
        (effects (font (size 1.27 1.27)) hide)
      )
      (property "Datasheet" "~" (id 3) (at 0 0 0)
        (effects (font (size 1.27 1.27)) hide)
      )
      (property "ki_keywords" "transistor PNP" (id 4) (at 0 0 0)
        (effects (font (size 1.27 1.27)) hide)
      )
      (property "ki_description" "PNP transistor, emitter/base/collector" (id 5) (at 0 0 0)
        (effects (font (size 1.27 1.27)) hide)
      )
      (symbol "Q_PNP_EBC_0_1"
        (polyline
          (pts
            (xy 0.635 0.635)
            (xy 2.54 2.54)
          )
          (stroke (width 0) (type default) (color 0 0 0 0))
          (fill (type none))
        )
        (polyline
          (pts
            (xy 0.635 -0.635)
            (xy 2.54 -2.54)
            (xy 2.54 -2.54)
          )
          (stroke (width 0) (type default) (color 0 0 0 0))
          (fill (type none))
        )
        (polyline
          (pts
            (xy 0.635 1.905)
            (xy 0.635 -1.905)
            (xy 0.635 -1.905)
          )
          (stroke (width 0.508) (type default) (color 0 0 0 0))
          (fill (type none))
        )
        (polyline
          (pts
            (xy 2.286 -1.778)
            (xy 1.778 -2.286)
            (xy 1.27 -1.27)
            (xy 2.286 -1.778)
            (xy 2.286 -1.778)
          )
          (stroke (width 0) (type default) (color 0 0 0 0))
          (fill (type outline))
        )
        (circle (center 1.27 0) (radius 2.8194)
          (stroke (width 0.254) (type default) (color 0 0 0 0))
          (fill (type none))
        )
      )
      (symbol "Q_PNP_EBC_1_1"
        (pin passive line (at 2.54 -5.08 90) (length 2.54)
          (name "E" (effects (font (size 1.27 1.27))))
          (number "1" (effects (font (size 1.27 1.27))))
        )
        (pin input line (at -5.08 0 0) (length 5.715)
          (name "B" (effects (font (size 1.27 1.27))))
          (number "2" (effects (font (size 1.27 1.27))))
        )
        (pin passive line (at 2.54 5.08 270) (length 2.54)
          (name "C" (effects (font (size 1.27 1.27))))
          (number "3" (effects (font (size 1.27 1.27))))
        )
      )
    )
  )

  (junction (at 115.57 71.755) (diameter 0) (color 0 0 0 0)
    (uuid 4a62b0a3-b884-43f0-8c0e-441adfc1d7b3)
  )

  (wire (pts (xy 115.57 71.755) (xy 118.745 71.755))
    (stroke (width 0) (type default) (color 0 0 0 0))
    (uuid 625b64ac-9004-4193-8d46-f3e2c52e567f)
  )
  (wire (pts (xy 118.745 66.675) (xy 118.745 69.215))
    (stroke (width 0) (type default) (color 0 0 0 0))
    (uuid cbd4890b-a29a-47a1-9355-14650f0c4aa0)
  )
  (wire (pts (xy 107.95 66.675) (xy 118.745 66.675))
    (stroke (width 0) (type default) (color 0 0 0 0))
    (uuid dcea923c-5db0-4f12-a166-8c0858446f8a)
  )
  (wire (pts (xy 115.57 76.835) (xy 107.95 76.835))
    (stroke (width 0) (type default) (color 0 0 0 0))
    (uuid f153c1ca-8e15-404e-8aa4-0bcebca950df)
  )
  (wire (pts (xy 115.57 71.755) (xy 115.57 76.835))
    (stroke (width 0) (type default) (color 0 0 0 0))
    (uuid f5385830-d1b4-4a09-99a3-79d04ab72624)
  )

  (symbol (lib_id "Connector_Generic:Conn_01x02") (at 123.825 69.215 0) (unit 1)
    (in_bom yes) (on_board yes) (fields_autoplaced)
    (uuid 0883b111-ec43-42f5-a998-4d7b7a05003a)
    (property "Reference" "J1" (id 0) (at 126.365 69.2149 0)
      (effects (font (size 1.27 1.27)) (justify left))
    )
    (property "Value" "TEMP_SENSE" (id 1) (at 126.365 71.7549 0)
      (effects (font (size 1.27 1.27)) (justify left))
    )
    (property "Footprint" "Connector_JST:JST_PH_S2B-PH-K_1x02_P2.00mm_Horizontal" (id 2) (at 123.825 69.215 0)
      (effects (font (size 1.27 1.27)) hide)
    )
    (property "Datasheet" "~" (id 3) (at 123.825 69.215 0)
      (effects (font (size 1.27 1.27)) hide)
    )
    (pin "1" (uuid d6fa91be-c70c-4983-8723-57557725d7ad))
    (pin "2" (uuid f79fed08-913d-4bcd-922c-e706b3c6b199))
  )

  (symbol (lib_id "Device:Q_PNP_EBC") (at 110.49 71.755 180) (unit 1)
    (in_bom yes) (on_board yes) (fields_autoplaced)
    (uuid 688a454d-ebcb-4c73-ac79-4d9e1f57bb68)
    (property "Reference" "Q1" (id 0) (at 105.41 70.4849 0)
      (effects (font (size 1.27 1.27)) (justify left))
    )
    (property "Value" "SST3906" (id 1) (at 105.41 73.0249 0)
      (effects (font (size 1.27 1.27)) (justify left))
    )
    (property "Footprint" "Package_TO_SOT_SMD:SOT-23_Handsoldering" (id 2) (at 105.41 74.295 0)
      (effects (font (size 1.27 1.27)) hide)
    )
    (property "Datasheet" "~" (id 3) (at 110.49 71.755 0)
      (effects (font (size 1.27 1.27)) hide)
    )
    (pin "1" (uuid 6ff4dd6f-dcb0-4ee3-b023-0976e213b70f))
    (pin "2" (uuid feb29897-7a43-4c44-b21c-77fc4c9574e9))
    (pin "3" (uuid 2cd05e7e-5594-467d-a2c7-9d07937aaa4f))
  )

  (sheet_instances
    (path "/" (page "1"))
  )

  (symbol_instances
    (path "/0883b111-ec43-42f5-a998-4d7b7a05003a"
      (reference "J1") (unit 1) (value "TEMP_SENSE") (footprint "Connector_JST:JST_PH_S2B-PH-K_1x02_P2.00mm_Horizontal")
    )
    (path "/688a454d-ebcb-4c73-ac79-4d9e1f57bb68"
      (reference "Q1") (unit 1) (value "SST3906") (footprint "Package_TO_SOT_SMD:SOT-23_Handsoldering")
    )
  )
)
